{
  "project_info": {
    "project_number": "1038195179715",
    "firebase_url": "https://pbpu-96b36-default-rtdb.firebaseio.com",
    "project_id": "pbpu-96b36",
    "storage_bucket": "pbpu-96b36.appspot.com"
  },
  "client": [
    {
      "client_info": {
        "mobilesdk_app_id": "1:1038195179715:android:87ce211046b301c0d86276",
        "android_client_info": {
          "package_name": "com.example.aplikasiwisata"
        }
      },
      "oauth_client": [
        {
          "client_id": "1038195179715-4ffm22pi4uu0voe9m5hru480ukcqlu6m.apps.googleusercontent.com",
          "client_type": 3
        }
      ],
      "api_key": [
        {
          "current_key": "AIzaSyCjZnSkqGvra30vvCuSdptYSUUKS1ZtCCg"
        }
      ],
      "services": {
        "appinvite_service": {
          "other_platform_oauth_client": [
            {
              "client_id": "1038195179715-4ffm22pi4uu0voe9m5hru480ukcqlu6m.apps.googleusercontent.com",
              "client_type": 3
            }
          ]
        }
      }
    }
  ],
  "configuration_version": "1"
}